<?xml version="1.0" standalone="no"?>
<!DOCTYPE svg PUBLIC "-//W3C//DTD SVG 1.1//EN" "http://www.w3.org/Graphics/SVG/1.1/DTD/svg11.dtd">
<svg xmlns="http://www.w3.org/2000/svg">
<defs>
<font id="icofont" horiz-adv-x="1000" >
<font-face font-family="IcoFont" font-weight="400" font-style="Regular" units-per-em="1000" ascent="850" descent="-150" />
<missing-glyph horiz-adv-x="1000" />
<glyph glyph-name="web" horiz-adv-x="1000" unicode="&#xf028;" d="M891 473c-52 166-208 287-390 287-184 0-340-120-392-287h-46v-246h46c52-166 208-287 392-287 182 0 337 121 390 287h47v246h-47z m-151 145c-17-7-34-14-49-20-16 28-32 55-48 82 35-15 67-35 97-62z m-82-202h32l15-83 18 83h27l19-83 15 83h32l-28-132h-34l-18 75-17-75h-33l-28 132z m14-189c-4-19-9-37-12-56-1-5-3-7-9-6-41 7-83 14-126 21v41h147z m-146 480c59-22 88-71 115-125-39-6-77-11-115-17v142z m0-191c15 2 31 3 47 5 25 4 51 9 77 13 4 2 8 2 9-4 6-19 10-38 14-57h-147v43z m-51 189v-137c-39 0-76 6-114 15 20 57 75 117 114 122z m-146-232c4 19 8 37 11 55 2 7 4 8 11 7 39-10 79-16 120-18 1 0 2 0 4-1v-43h-146v0z m13-57l-28-132h-33l-18 75-17-76h-33l-28 133h31l15-83 19 83h27l18-83 16 83h31v0z m15 264c-16-27-31-54-47-82-16 7-32 13-50 20 30 27 62 47 97 62z m-134-100c24-10 47-20 71-30-8-25-14-51-18-77h-114c14 39 34 74 61 107z m-61-353h114c4-26 10-52 18-77-24-10-47-20-71-30-27 33-47 68-61 107z m98-145c18 7 34 13 50 19 16-27 31-54 47-81-35 14-67 35-97 62z m215-87c-43 8-91 64-113 121 21 8 94 18 113 15v-136z m0 189c-21-2-42-4-63-7-20-3-41-8-62-12-5-1-7-1-9 5-6 19-10 38-14 57h148v-43z m25 175l-18-76h-33l-28 133h32l15-83 18 83h27l19-83 15 83h32l-28-132h-33l-18 75z m25-364v139c39-5 76-10 114-15-18-54-70-118-114-124z m118 24c16 27 31 54 48 82 15-6 31-12 49-19-30-27-62-47-97-63z m134 101c-23 10-47 20-71 30 8 25 14 51 18 77h114c-14-39-34-74-61-107z m-53 353c-4 26-10 52-18 77 24 10 47 20 71 30 27-33 47-68 61-107h-114z" />
<glyph glyph-name="linkedin" horiz-adv-x="1000" unicode="&#xed4d;" d="M871 788h-741c-36 0-65-28-65-63v-750c0-35 29-63 65-63h741c35 0 64 28 64 63v750c0 35-29 63-64 63z m-542-733h-131v395h131v-395z m-66 449h-1c-44 0-72 30-72 68 0 39 29 69 74 69 45 0 73-30 73-69 0-38-28-68-74-68z m539-449h-131v212c0 53-19 89-66 89-37 0-58-25-68-48-3-9-4-20-4-32v-221h-131s1 358 0 395h131v-56c17 27 49 65 118 65 87 0 151-56 151-177v-227z" />
<glyph glyph-name="twitter" horiz-adv-x="1000" unicode="&#xed7a;" d="M938 622c-33-15-67-24-104-29 38 22 66 58 79 100-34-21-73-36-114-44-32 35-79 57-131 57-99 0-179-81-179-180 0-14 1-28 4-41-149 8-281 79-370 188-15-27-24-58-24-90 0-63 32-118 80-150-30 1-57 9-81 23v-3c0-87 61-159 144-176-15-4-31-6-48-6-11 0-23 1-33 3 22-71 89-123 167-124-61-49-139-77-223-77-14 0-28 1-43 2 80-51 174-80 276-80 330 0 510 273 510 510 0 8 0 16 0 24 35 25 66 57 90 93z" />
<glyph glyph-name="facebook" horiz-adv-x="1000" unicode="&#xed37;" d="M703 504h-138v91c0 34 22 42 38 42h98v150l-135 1c-149 0-183-112-183-184v-100h-86v-154h86v-437h182v437h122l16 154z" />
<glyph glyph-name="ui-cell-phone" horiz-adv-x="1000" unicode="&#xec49;" d="M712 850h-54c-21 0-39-17-39-39v-57h-293c-42 0-77-35-77-78v-749c0-42 35-77 77-77h348c42 0 77 35 77 77v884c0 22-17 39-39 39z m-303-918h-92v92h92v-92z m0 137h-92v92h92v-92z m136-137h-92v92h92v-92z m0 137h-92v92h92v-92z m136-137h-91v92h91v-92z m0 137h-91v92h91v-92z m15 190c0-21-18-38-39-38h-313c-22 0-39 17-39 38v365c0 21 17 38 39 38h313c21 0 39-17 39-38v-365z" />
<glyph glyph-name="email" horiz-adv-x="1000" unicode="&#xef12;" d="M520 496c-6-1-11-3-16-6-5-3-9-7-12-13s-5-10-6-17c-1-6-2-13-1-20 1-8 3-14 8-18 4-3 9-5 15-4 4 0 7 1 10 1s6 2 9 4l6 73c-3 0-5 0-7 0-1 0-3 0-6 0z m-451 62c139-139 278-277 416-416 12-12 17-11 29 0l393 394c10 9 23 17 28 29 5 12 1 27 1 41 1 28-13 41-41 41h-792c-27 0-40-14-40-40 0-11 0-22 0-33-1-7 2-11 6-16z m318-81c5 19 13 35 24 51 12 15 27 28 46 39 20 11 43 18 70 21 15 1 29 0 42-2 14-3 26-8 36-15 11-7 19-17 26-28 7-12 11-26 13-43 1-12 0-24-2-36-3-12-8-23-14-33-6-10-14-18-24-25-9-7-20-11-33-12-14-2-25 1-33 8-5-4-11-7-17-10-7-3-14-4-24-5-6-1-12-1-18 1-5 1-10 3-15 7-4 4-8 8-11 14-3 6-5 13-6 21-1 13 0 25 4 37 3 11 8 21 15 30 6 8 15 15 24 21 10 5 20 8 31 10 9 0 18 1 26 0 9 0 17-2 24-4l-9-100c2-1 6-1 10-1 7 1 13 3 19 8 5 5 9 11 12 18 3 7 5 15 6 23 2 9 2 17 1 25-2 22-11 38-25 49-15 10-34 14-59 12-19-2-35-7-50-14-14-8-25-18-34-30s-16-25-20-40c-4-15-5-30-4-45 1-14 5-25 10-35 5-9 11-17 19-22 8-6 17-10 26-12 10-2 21-2 31-1 10 1 20 2 28 4 8 2 16 5 23 9 2-5 4-9 6-13 2-5 4-9 5-13-3-2-7-4-12-6-5-2-10-4-15-5-6-2-12-3-18-4-6-1-12-2-18-2-15-2-30-1-43 2-14 3-26 8-37 16-11 8-20 18-27 31-7 13-12 28-13 47-2 17 0 34 4 52z m352-186c-2 2-5 4-9 8-2-3-4-6-6-8-60-60-120-120-180-180-28-28-61-28-88-1-60 60-120 120-180 180-3 3-5 6-7 9-3-2-4-3-5-4-65-65-131-131-196-196-6-6-6-12-4-19 4-18 18-27 38-27h794c3 0 6 0 8 0 13 2 23 8 29 20 5 12 6 18-5 30-63 62-126 125-189 188z m-676-133l170 170c-56 58-113 115-170 172v-342z m873 1v341l-170-170 170-171z" />
<glyph glyph-name="instagram" horiz-adv-x="1000" unicode="&#xed46;" d="M499 607c-141 0-257-115-257-256 0-142 116-257 257-257 142 0 257 115 257 257 0 141-115 256-257 256z m0-415c-87 0-159 71-159 159 0 87 72 158 159 158 88 0 159-71 159-158 0-88-71-159-159-159z m210 653h-420c-157 0-284-128-284-285v-419c0-157 127-285 284-285h420c157 0 285 128 285 285v419c0 157-128 285-285 285z m187-704c0-103-84-187-187-187h-420c-103 0-186 84-186 187v419c0 103 83 187 186 187h420c103 0 187-84 187-187v-419z m-136 541c-37 0-68-31-68-68 0-37 30-67 68-67 37 0 67 30 67 67s-30 68-67 68z" />
</font>
</defs>
</svg>